[2018-03-21 19:55:24]  * VERSIONS:     XMRig/2.5.0 libuv/1.8.0 gcc/5.4.0
[2018-03-21 19:55:24]  * HUGE PAGES:   unavailable, disabled
[2018-03-21 19:55:24]  * CPU:          Intel(R) Xeon(R) Platinum 8175M CPU @ 2.50GHz (1) x64 AES-NI
[2018-03-21 19:55:24]  * CPU L2/L3:    32.0 MB/33.0 MB
[2018-03-21 19:55:24]  * THREADS:      16, cryptonight, av=1, donate=1%
[2018-03-21 19:55:24]  * POOL #1:      xmr-us-east1.nanopool.org:14444
[2018-03-21 19:55:24]  * COMMANDS:     'h' hashrate, 'p' pause, 'r' resume
[2018-03-21 19:55:24] use pool xmr-us-east1.nanopool.org:14444 144.217.14.139
[2018-03-21 19:55:24] new job from xmr-us-east1.nanopool.org:14444 diff 120001
[2018-03-21 19:55:33] speed 2.5s/60s/15m 801.4 n/a n/a H/s max: 790.6 H/s
[2018-03-21 19:55:38] speed 2.5s/60s/15m 819.4 n/a n/a H/s max: 790.6 H/s
[2018-03-21 19:55:43] speed 2.5s/60s/15m 819.4 n/a n/a H/s max: 819.5 H/s
[2018-03-21 19:55:48] speed 2.5s/60s/15m 819.5 n/a n/a H/s max: 819.5 H/s
[2018-03-21 19:55:53] speed 2.5s/60s/15m 819.4 n/a n/a H/s max: 819.5 H/s
[2018-03-21 19:55:58] speed 2.5s/60s/15m 819.5 n/a n/a H/s max: 819.5 H/s
[2018-03-21 19:56:03] speed 2.5s/60s/15m 819.6 n/a n/a H/s max: 819.5 H/s
[2018-03-21 19:56:06] new job from xmr-us-east1.nanopool.org:14444 diff 120001
[2018-03-21 19:56:08] speed 2.5s/60s/15m 819.4 n/a n/a H/s max: 819.5 H/s
[2018-03-21 19:56:13] speed 2.5s/60s/15m 819.3 n/a n/a H/s max: 819.5 H/s
[2018-03-21 19:56:18] speed 2.5s/60s/15m 819.5 n/a n/a H/s max: 819.5 H/s
[2018-03-21 19:56:23] speed 2.5s/60s/15m 819.6 n/a n/a H/s max: 819.5 H/s
[2018-03-21 19:56:23] new job from xmr-us-east1.nanopool.org:14444 diff 120001
[2018-03-21 19:56:28] speed 2.5s/60s/15m 819.4 816.3 n/a H/s max: 819.5 H/s
[2018-03-21 19:56:33] speed 2.5s/60s/15m 819.5 819.5 n/a H/s max: 819.5 H/s
[2018-03-21 19:56:38] speed 2.5s/60s/15m 819.5 819.5 n/a H/s max: 819.5 H/s
[2018-03-21 19:56:43] speed 2.5s/60s/15m 819.6 819.5 n/a H/s max: 819.5 H/s
[2018-03-21 19:56:48] speed 2.5s/60s/15m 819.5 819.5 n/a H/s max: 819.5 H/s
[2018-03-21 19:56:53] speed 2.5s/60s/15m 819.6 819.5 n/a H/s max: 819.6 H/s
[2018-03-21 19:56:58] speed 2.5s/60s/15m 819.5 819.5 n/a H/s max: 819.6 H/s
[2018-03-21 19:57:03] speed 2.5s/60s/15m 819.7 819.5 n/a H/s max: 819.6 H/s
[2018-03-21 19:57:08] speed 2.5s/60s/15m 819.6 819.5 n/a H/s max: 819.6 H/s
[2018-03-21 19:57:13] speed 2.5s/60s/15m 819.6 819.5 n/a H/s max: 819.6 H/s
[2018-03-21 19:57:18] speed 2.5s/60s/15m 819.7 819.5 n/a H/s max: 819.6 H/s
[2018-03-21 19:57:23] speed 2.5s/60s/15m 819.7 819.6 n/a H/s max: 819.6 H/s
[2018-03-21 19:57:27] accepted (1/0) diff 120001 (151 ms)
[2018-03-21 19:57:28] speed 2.5s/60s/15m 819.5 819.6 n/a H/s max: 819.7 H/s
[2018-03-21 19:57:31] new job from xmr-us-east1.nanopool.org:14444 diff 120001
[2018-03-21 19:57:33] speed 2.5s/60s/15m 819.5 819.6 n/a H/s max: 819.7 H/s
[2018-03-21 19:57:38] speed 2.5s/60s/15m 819.8 819.6 n/a H/s max: 819.7 H/s
[2018-03-21 19:57:43] speed 2.5s/60s/15m 819.7 819.6 n/a H/s max: 819.7 H/s
[2018-03-21 19:57:48] speed 2.5s/60s/15m 819.6 819.6 n/a H/s max: 819.7 H/s
[2018-03-21 19:57:53] speed 2.5s/60s/15m 819.6 819.6 n/a H/s max: 819.7 H/s
[2018-03-21 19:57:58] speed 2.5s/60s/15m 819.6 819.6 n/a H/s max: 819.7 H/s
[2018-03-21 19:57:58] new job from xmr-us-east1.nanopool.org:14444 diff 120001
[2018-03-21 19:58:01] new job from xmr-us-east1.nanopool.org:14444 diff 120001
[2018-03-21 19:58:03] speed 2.5s/60s/15m 819.7 819.6 n/a H/s max: 819.7 H/s
[2018-03-21 19:58:08] speed 2.5s/60s/15m 819.6 819.6 n/a H/s max: 819.7 H/s
[2018-03-21 19:58:13] speed 2.5s/60s/15m 819.7 819.6 n/a H/s max: 819.7 H/s
[2018-03-21 19:58:18] speed 2.5s/60s/15m 819.7 819.6 n/a H/s max: 819.7 H/s
[2018-03-21 19:58:23] speed 2.5s/60s/15m 819.6 819.6 n/a H/s max: 819.7 H/s
[2018-03-21 19:58:28] speed 2.5s/60s/15m 819.6 819.6 n/a H/s max: 819.7 H/s
[2018-03-21 19:58:33] speed 2.5s/60s/15m 819.5 819.6 n/a H/s max: 819.7 H/s
[2018-03-21 19:58:38] speed 2.5s/60s/15m 819.5 819.6 n/a H/s max: 819.7 H/s
[2018-03-21 19:58:43] speed 2.5s/60s/15m 819.5 819.6 n/a H/s max: 819.7 H/s
[2018-03-21 19:58:48] speed 2.5s/60s/15m 819.6 819.6 n/a H/s max: 819.7 H/s
[2018-03-21 19:58:53] speed 2.5s/60s/15m 819.5 819.6 n/a H/s max: 819.7 H/s
[2018-03-21 19:58:58] speed 2.5s/60s/15m 819.6 819.6 n/a H/s max: 819.7 H/s
[2018-03-21 19:59:03] speed 2.5s/60s/15m 819.6 819.6 n/a H/s max: 819.7 H/s
[2018-03-21 19:59:08] speed 2.5s/60s/15m 819.5 819.6 n/a H/s max: 819.7 H/s
[2018-03-21 19:59:13] speed 2.5s/60s/15m 819.5 819.6 n/a H/s max: 819.7 H/s
[2018-03-21 19:59:16] new job from xmr-us-east1.nanopool.org:14444 diff 120001
[2018-03-21 19:59:18] new job from xmr-us-east1.nanopool.org:14444 diff 120001
[2018-03-21 19:59:18] speed 2.5s/60s/15m 819.5 819.5 n/a H/s max: 819.7 H/s
[2018-03-21 19:59:18] new job from xmr-us-east1.nanopool.org:14444 diff 120001
[2018-03-21 19:59:23] speed 2.5s/60s/15m 819.5 819.5 n/a H/s max: 819.7 H/s
[2018-03-21 19:59:28] speed 2.5s/60s/15m 819.6 819.5 n/a H/s max: 819.7 H/s
[2018-03-21 19:59:33] speed 2.5s/60s/15m 819.4 819.5 n/a H/s max: 819.7 H/s
[2018-03-21 19:59:38] speed 2.5s/60s/15m 819.6 819.5 n/a H/s max: 819.7 H/s
[2018-03-21 19:59:43] speed 2.5s/60s/15m 819.7 819.5 n/a H/s max: 819.7 H/s
[2018-03-21 19:59:48] speed 2.5s/60s/15m 819.5 819.5 n/a H/s max: 819.7 H/s
[2018-03-21 19:59:53] speed 2.5s/60s/15m 819.5 819.5 n/a H/s max: 819.7 H/s
[2018-03-21 19:59:55] accepted (2/0) diff 120001 (135 ms)
[2018-03-21 19:59:57] new job from xmr-us-east1.nanopool.org:14444 diff 120001
[2018-03-21 19:59:58] speed 2.5s/60s/15m 819.6 819.5 n/a H/s max: 819.7 H/s
[2018-03-21 20:00:03] speed 2.5s/60s/15m 819.6 819.5 n/a H/s max: 819.7 H/s
[2018-03-21 20:00:08] speed 2.5s/60s/15m 819.4 819.5 n/a H/s max: 819.7 H/s
[2018-03-21 20:00:13] speed 2.5s/60s/15m 819.5 819.5 n/a H/s max: 819.7 H/s
[2018-03-21 20:00:18] speed 2.5s/60s/15m 819.5 819.5 n/a H/s max: 819.7 H/s
[2018-03-21 20:00:23] speed 2.5s/60s/15m 819.6 819.5 n/a H/s max: 819.7 H/s
[2018-03-21 20:00:27] accepted (3/0) diff 120001 (154 ms)
[2018-03-21 20:00:28] speed 2.5s/60s/15m 819.4 819.5 n/a H/s max: 819.7 H/s
[2018-03-21 20:00:33] speed 2.5s/60s/15m 819.5 819.5 n/a H/s max: 819.7 H/s
[2018-03-21 20:00:38] speed 2.5s/60s/15m 819.5 819.5 n/a H/s max: 819.7 H/s
[2018-03-21 20:00:43] speed 2.5s/60s/15m 819.6 819.5 n/a H/s max: 819.7 H/s
[2018-03-21 20:00:48] speed 2.5s/60s/15m 819.4 819.5 n/a H/s max: 819.7 H/s
[2018-03-21 20:00:53] speed 2.5s/60s/15m 819.5 819.5 n/a H/s max: 819.7 H/s
[2018-03-21 20:00:58] speed 2.5s/60s/15m 819.5 819.5 n/a H/s max: 819.7 H/s
[2018-03-21 20:01:01] new job from xmr-us-east1.nanopool.org:14444 diff 120001
[2018-03-21 20:01:03] speed 2.5s/60s/15m 819.3 819.5 n/a H/s max: 819.7 H/s
[2018-03-21 20:01:08] speed 2.5s/60s/15m 819.4 819.5 n/a H/s max: 819.7 H/s
[2018-03-21 20:01:13] speed 2.5s/60s/15m 819.4 819.5 n/a H/s max: 819.7 H/s
[2018-03-21 20:01:18] speed 2.5s/60s/15m 819.5 819.5 n/a H/s max: 819.7 H/s
[2018-03-21 20:01:23] speed 2.5s/60s/15m 819.4 819.5 n/a H/s max: 819.7 H/s
[2018-03-21 20:01:28] speed 2.5s/60s/15m 819.5 819.5 n/a H/s max: 819.7 H/s
[2018-03-21 20:01:33] speed 2.5s/60s/15m 819.3 819.5 n/a H/s max: 819.7 H/s
[2018-03-21 20:01:38] speed 2.5s/60s/15m 819.5 819.5 n/a H/s max: 819.7 H/s
[2018-03-21 20:01:43] speed 2.5s/60s/15m 819.5 819.5 n/a H/s max: 819.7 H/s
[2018-03-21 20:01:48] speed 2.5s/60s/15m 819.5 819.5 n/a H/s max: 819.7 H/s
[2018-03-21 20:01:53] speed 2.5s/60s/15m 819.6 819.5 n/a H/s max: 819.7 H/s
[2018-03-21 20:01:56] accepted (4/0) diff 120001 (155 ms)
[2018-03-21 20:01:58] speed 2.5s/60s/15m 819.5 819.5 n/a H/s max: 819.7 H/s
[2018-03-21 20:02:01] new job from xmr-us-east1.nanopool.org:14444 diff 120001
[2018-03-21 20:02:03] speed 2.5s/60s/15m 819.3 819.5 n/a H/s max: 819.7 H/s
[2018-03-21 20:02:08] speed 2.5s/60s/15m 819.5 819.5 n/a H/s max: 819.7 H/s
[2018-03-21 20:02:13] speed 2.5s/60s/15m 818.6 819.5 n/a H/s max: 819.7 H/s
[2018-03-21 20:02:18] speed 2.5s/60s/15m 819.5 819.5 n/a H/s max: 819.7 H/s
[2018-03-21 20:02:23] speed 2.5s/60s/15m 819.4 819.5 n/a H/s max: 819.7 H/s
[2018-03-21 20:02:28] speed 2.5s/60s/15m 819.4 819.5 n/a H/s max: 819.7 H/s
[2018-03-21 20:02:33] speed 2.5s/60s/15m 819.5 819.5 n/a H/s max: 819.7 H/s
[2018-03-21 20:02:38] speed 2.5s/60s/15m 819.4 819.5 n/a H/s max: 819.7 H/s
[2018-03-21 20:02:43] speed 2.5s/60s/15m 819.5 819.5 n/a H/s max: 819.7 H/s
[2018-03-21 20:02:48] speed 2.5s/60s/15m 819.5 819.5 n/a H/s max: 819.7 H/s
[2018-03-21 20:02:53] speed 2.5s/60s/15m 819.4 819.4 n/a H/s max: 819.7 H/s
[2018-03-21 20:02:58] speed 2.5s/60s/15m 819.5 819.4 n/a H/s max: 819.7 H/s
[2018-03-21 20:03:03] speed 2.5s/60s/15m 819.5 819.4 n/a H/s max: 819.7 H/s
[2018-03-21 20:03:08] speed 2.5s/60s/15m 819.5 819.5 n/a H/s max: 819.7 H/s
[2018-03-21 20:03:13] speed 2.5s/60s/15m 819.6 819.5 n/a H/s max: 819.7 H/s
[2018-03-21 20:03:18] speed 2.5s/60s/15m 819.5 819.5 n/a H/s max: 819.7 H/s
[2018-03-21 20:03:23] speed 2.5s/60s/15m 819.5 819.5 n/a H/s max: 819.7 H/s
[2018-03-21 20:03:24] new job from xmr-us-east1.nanopool.org:14444 diff 120001
[2018-03-21 20:03:28] speed 2.5s/60s/15m 819.6 819.5 n/a H/s max: 819.7 H/s
[2018-03-21 20:03:33] speed 2.5s/60s/15m 819.5 819.5 n/a H/s max: 819.7 H/s
[2018-03-21 20:03:38] speed 2.5s/60s/15m 819.6 819.5 n/a H/s max: 819.7 H/s
[2018-03-21 20:03:43] speed 2.5s/60s/15m 819.6 819.5 n/a H/s max: 819.7 H/s
[2018-03-21 20:03:48] speed 2.5s/60s/15m 819.6 819.5 n/a H/s max: 819.7 H/s
[2018-03-21 20:03:53] speed 2.5s/60s/15m 819.5 819.5 n/a H/s max: 819.7 H/s
[2018-03-21 20:03:58] speed 2.5s/60s/15m 819.7 819.5 n/a H/s max: 819.7 H/s
[2018-03-21 20:04:02] accepted (5/0) diff 120001 (155 ms)
[2018-03-21 20:04:03] speed 2.5s/60s/15m 819.5 819.5 n/a H/s max: 819.7 H/s
[2018-03-21 20:04:08] speed 2.5s/60s/15m 819.5 819.5 n/a H/s max: 819.7 H/s
[2018-03-21 20:04:13] speed 2.5s/60s/15m 819.6 819.5 n/a H/s max: 819.7 H/s
[2018-03-21 20:04:18] speed 2.5s/60s/15m 819.7 819.5 n/a H/s max: 819.7 H/s
[2018-03-21 20:04:23] speed 2.5s/60s/15m 819.5 819.5 n/a H/s max: 819.7 H/s
[2018-03-21 20:04:25] new job from xmr-us-east1.nanopool.org:14444 diff 120001
[2018-03-21 20:04:28] speed 2.5s/60s/15m 819.7 819.6 n/a H/s max: 819.7 H/s
[2018-03-21 20:04:33] speed 2.5s/60s/15m 819.6 819.6 n/a H/s max: 819.7 H/s
[2018-03-21 20:04:38] speed 2.5s/60s/15m 819.4 819.6 n/a H/s max: 819.7 H/s
[2018-03-21 20:04:43] speed 2.5s/60s/15m 819.6 819.5 n/a H/s max: 819.7 H/s
[2018-03-21 20:04:48] speed 2.5s/60s/15m 819.6 819.5 n/a H/s max: 819.7 H/s
[2018-03-21 20:04:53] speed 2.5s/60s/15m 819.5 819.6 n/a H/s max: 819.7 H/s
[2018-03-21 20:04:58] speed 2.5s/60s/15m 819.5 819.5 n/a H/s max: 819.7 H/s
[2018-03-21 20:05:03] speed 2.5s/60s/15m 819.2 819.5 n/a H/s max: 819.7 H/s
[2018-03-21 20:05:08] speed 2.5s/60s/15m 819.4 819.5 n/a H/s max: 819.7 H/s
[2018-03-21 20:05:13] speed 2.5s/60s/15m 819.4 819.5 n/a H/s max: 819.7 H/s
[2018-03-21 20:05:18] speed 2.5s/60s/15m 819.5 819.5 n/a H/s max: 819.7 H/s
[2018-03-21 20:05:23] speed 2.5s/60s/15m 819.5 819.5 n/a H/s max: 819.7 H/s
[2018-03-21 20:05:25] new job from xmr-us-east1.nanopool.org:14444 diff 120001
[2018-03-21 20:05:28] speed 2.5s/60s/15m 819.6 819.5 n/a H/s max: 819.7 H/s
[2018-03-21 20:05:33] speed 2.5s/60s/15m 819.5 819.5 n/a H/s max: 819.7 H/s
[2018-03-21 20:05:38] speed 2.5s/60s/15m 819.4 819.5 n/a H/s max: 819.7 H/s
[2018-03-21 20:05:43] speed 2.5s/60s/15m 819.6 819.5 n/a H/s max: 819.7 H/s
[2018-03-21 20:05:48] speed 2.5s/60s/15m 819.5 819.5 n/a H/s max: 819.7 H/s
[2018-03-21 20:05:53] speed 2.5s/60s/15m 819.5 819.5 n/a H/s max: 819.7 H/s
[2018-03-21 20:05:58] speed 2.5s/60s/15m 819.5 819.5 n/a H/s max: 819.7 H/s
[2018-03-21 20:06:03] speed 2.5s/60s/15m 819.5 819.5 n/a H/s max: 819.7 H/s
[2018-03-21 20:06:08] speed 2.5s/60s/15m 819.4 819.5 n/a H/s max: 819.7 H/s
[2018-03-21 20:06:13] speed 2.5s/60s/15m 819.4 819.5 n/a H/s max: 819.7 H/s
[2018-03-21 20:06:18] speed 2.5s/60s/15m 819.5 819.5 n/a H/s max: 819.7 H/s
[2018-03-21 20:06:23] speed 2.5s/60s/15m 819.5 819.5 n/a H/s max: 819.7 H/s
[2018-03-21 20:06:28] speed 2.5s/60s/15m 819.5 819.5 n/a H/s max: 819.7 H/s
[2018-03-21 20:06:29] new job from xmr-us-east1.nanopool.org:14444 diff 120001
[2018-03-21 20:06:33] speed 2.5s/60s/15m 819.5 819.5 n/a H/s max: 819.7 H/s
[2018-03-21 20:06:38] speed 2.5s/60s/15m 819.5 819.5 n/a H/s max: 819.7 H/s
[2018-03-21 20:06:43] speed 2.5s/60s/15m 819.5 819.5 n/a H/s max: 819.7 H/s
[2018-03-21 20:06:48] speed 2.5s/60s/15m 819.5 819.5 n/a H/s max: 819.7 H/s
[2018-03-21 20:06:53] speed 2.5s/60s/15m 819.4 819.5 n/a H/s max: 819.7 H/s
[2018-03-21 20:06:58] speed 2.5s/60s/15m 819.4 819.4 n/a H/s max: 819.7 H/s
[2018-03-21 20:07:03] speed 2.5s/60s/15m 819.4 819.4 n/a H/s max: 819.7 H/s
[2018-03-21 20:07:08] speed 2.5s/60s/15m 819.5 819.4 n/a H/s max: 819.7 H/s
[2018-03-21 20:07:13] speed 2.5s/60s/15m 819.4 819.4 n/a H/s max: 819.7 H/s
[2018-03-21 20:07:18] speed 2.5s/60s/15m 819.5 819.4 n/a H/s max: 819.7 H/s
[2018-03-21 20:07:23] speed 2.5s/60s/15m 819.4 819.4 n/a H/s max: 819.7 H/s
[2018-03-21 20:07:28] speed 2.5s/60s/15m 819.4 819.4 n/a H/s max: 819.7 H/s
[2018-03-21 20:07:29] new job from xmr-us-east1.nanopool.org:14444 diff 120001
[2018-03-21 20:07:33] speed 2.5s/60s/15m 819.4 819.4 n/a H/s max: 819.7 H/s
[2018-03-21 20:07:38] speed 2.5s/60s/15m 819.5 819.4 n/a H/s max: 819.7 H/s
[2018-03-21 20:07:43] speed 2.5s/60s/15m 819.4 819.4 n/a H/s max: 819.7 H/s
[2018-03-21 20:07:48] speed 2.5s/60s/15m 819.5 819.4 n/a H/s max: 819.7 H/s
[2018-03-21 20:07:53] speed 2.5s/60s/15m 819.5 819.4 n/a H/s max: 819.7 H/s
[2018-03-21 20:07:58] speed 2.5s/60s/15m 819.5 819.4 n/a H/s max: 819.7 H/s
[2018-03-21 20:08:03] speed 2.5s/60s/15m 819.4 819.5 n/a H/s max: 819.7 H/s
[2018-03-21 20:08:08] speed 2.5s/60s/15m 819.4 819.5 n/a H/s max: 819.7 H/s
[2018-03-21 20:08:13] speed 2.5s/60s/15m 819.5 819.5 n/a H/s max: 819.7 H/s
[2018-03-21 20:08:18] speed 2.5s/60s/15m 819.6 819.5 n/a H/s max: 819.7 H/s
[2018-03-21 20:08:21] new job from xmr-us-east1.nanopool.org:14444 diff 120001
[2018-03-21 20:08:23] speed 2.5s/60s/15m 819.5 819.5 n/a H/s max: 819.7 H/s
[2018-03-21 20:08:28] speed 2.5s/60s/15m 819.4 819.5 n/a H/s max: 819.7 H/s
[2018-03-21 20:08:33] speed 2.5s/60s/15m 819.4 819.5 n/a H/s max: 819.7 H/s
[2018-03-21 20:08:38] speed 2.5s/60s/15m 819.5 819.5 n/a H/s max: 819.7 H/s
[2018-03-21 20:08:43] speed 2.5s/60s/15m 819.4 819.5 n/a H/s max: 819.7 H/s
[2018-03-21 20:08:48] speed 2.5s/60s/15m 819.4 819.5 n/a H/s max: 819.7 H/s
[2018-03-21 20:08:53] speed 2.5s/60s/15m 819.4 819.5 n/a H/s max: 819.7 H/s
[2018-03-21 20:08:58] speed 2.5s/60s/15m 819.4 819.4 n/a H/s max: 819.7 H/s
[2018-03-21 20:09:03] speed 2.5s/60s/15m 819.3 819.4 n/a H/s max: 819.7 H/s
[2018-03-21 20:09:08] speed 2.5s/60s/15m 819.4 819.4 n/a H/s max: 819.7 H/s
[2018-03-21 20:09:13] speed 2.5s/60s/15m 819.3 819.4 n/a H/s max: 819.7 H/s
[2018-03-21 20:09:18] speed 2.5s/60s/15m 819.4 819.4 n/a H/s max: 819.7 H/s
[2018-03-21 20:09:23] speed 2.5s/60s/15m 819.5 819.4 n/a H/s max: 819.7 H/s
[2018-03-21 20:09:26] new job from xmr-us-east1.nanopool.org:14444 diff 120001
[2018-03-21 20:09:28] speed 2.5s/60s/15m 819.4 819.4 n/a H/s max: 819.7 H/s
[2018-03-21 20:09:33] speed 2.5s/60s/15m 819.5 819.4 n/a H/s max: 819.7 H/s
[2018-03-21 20:09:38] speed 2.5s/60s/15m 819.5 819.4 n/a H/s max: 819.7 H/s
[2018-03-21 20:09:43] speed 2.5s/60s/15m 819.6 819.4 n/a H/s max: 819.7 H/s
[2018-03-21 20:09:48] speed 2.5s/60s/15m 819.4 819.4 n/a H/s max: 819.7 H/s
[2018-03-21 20:09:53] speed 2.5s/60s/15m 819.5 819.4 n/a H/s max: 819.7 H/s
[2018-03-21 20:09:58] speed 2.5s/60s/15m 819.4 819.4 n/a H/s max: 819.7 H/s
[2018-03-21 20:10:03] speed 2.5s/60s/15m 819.5 819.4 n/a H/s max: 819.7 H/s
[2018-03-21 20:10:08] speed 2.5s/60s/15m 819.5 819.4 n/a H/s max: 819.7 H/s
[2018-03-21 20:10:12] accepted (6/0) diff 120001 (170 ms)
[2018-03-21 20:10:13] speed 2.5s/60s/15m 819.5 819.4 n/a H/s max: 819.7 H/s
[2018-03-21 20:10:18] speed 2.5s/60s/15m 819.5 819.4 n/a H/s max: 819.7 H/s
[2018-03-21 20:10:23] speed 2.5s/60s/15m 819.5 819.5 n/a H/s max: 819.7 H/s
[2018-03-21 20:10:24] accepted (7/0) diff 120001 (143 ms)
[2018-03-21 20:10:28] speed 2.5s/60s/15m 819.4 819.5 819.3 H/s max: 819.7 H/s
[2018-03-21 20:10:33] speed 2.5s/60s/15m 819.5 819.5 819.5 H/s max: 819.7 H/s
[2018-03-21 20:10:37] new job from xmr-us-east1.nanopool.org:14444 diff 120001
[2018-03-21 20:10:38] speed 2.5s/60s/15m 819.6 819.5 819.5 H/s max: 819.7 H/s
[2018-03-21 20:10:39] accepted (8/0) diff 120001 (137 ms)
[2018-03-21 20:10:43] speed 2.5s/60s/15m 819.5 819.5 819.5 H/s max: 819.7 H/s
[2018-03-21 20:10:48] speed 2.5s/60s/15m 819.4 819.5 819.5 H/s max: 819.7 H/s
[2018-03-21 20:10:53] speed 2.5s/60s/15m 819.6 819.5 819.5 H/s max: 819.7 H/s
[2018-03-21 20:10:58] speed 2.5s/60s/15m 819.7 819.5 819.5 H/s max: 819.7 H/s
[2018-03-21 20:11:03] speed 2.5s/60s/15m 819.5 819.5 819.5 H/s max: 819.7 H/s
[2018-03-21 20:11:08] speed 2.5s/60s/15m 819.4 819.5 819.5 H/s max: 819.7 H/s
[2018-03-21 20:11:13] speed 2.5s/60s/15m 819.5 819.5 819.5 H/s max: 819.7 H/s
[2018-03-21 20:11:18] speed 2.5s/60s/15m 819.6 819.5 819.5 H/s max: 819.7 H/s
[2018-03-21 20:11:23] speed 2.5s/60s/15m 819.6 819.5 819.5 H/s max: 819.7 H/s
[2018-03-21 20:11:28] speed 2.5s/60s/15m 819.4 819.5 819.5 H/s max: 819.7 H/s
[2018-03-21 20:11:30] new job from xmr-us-east1.nanopool.org:14444 diff 120001
[2018-03-21 20:11:33] speed 2.5s/60s/15m 819.5 819.5 819.5 H/s max: 819.7 H/s
[2018-03-21 20:11:38] speed 2.5s/60s/15m 819.6 819.5 819.5 H/s max: 819.7 H/s
[2018-03-21 20:11:43] speed 2.5s/60s/15m 819.7 819.6 819.5 H/s max: 819.7 H/s
[2018-03-21 20:11:48] speed 2.5s/60s/15m 819.6 819.6 819.5 H/s max: 819.7 H/s
[2018-03-21 20:11:53] speed 2.5s/60s/15m 819.6 819.6 819.5 H/s max: 819.7 H/s
[2018-03-21 20:11:56] new job from xmr-us-east1.nanopool.org:14444 diff 120001
[2018-03-21 20:11:58] speed 2.5s/60s/15m 819.5 819.6 819.5 H/s max: 819.7 H/s
[2018-03-21 20:12:03] speed 2.5s/60s/15m 819.5 819.6 819.5 H/s max: 819.7 H/s
[2018-03-21 20:12:08] speed 2.5s/60s/15m 819.3 819.6 819.5 H/s max: 819.7 H/s
[2018-03-21 20:12:13] speed 2.5s/60s/15m 819.4 819.6 819.5 H/s max: 819.7 H/s
[2018-03-21 20:12:18] speed 2.5s/60s/15m 819.5 819.6 819.5 H/s max: 819.7 H/s
[2018-03-21 20:12:23] speed 2.5s/60s/15m 819.6 819.5 819.5 H/s max: 819.7 H/s
[2018-03-21 20:12:28] speed 2.5s/60s/15m 819.5 819.5 819.5 H/s max: 819.7 H/s
[2018-03-21 20:12:33] speed 2.5s/60s/15m 819.5 819.5 819.5 H/s max: 819.7 H/s
[2018-03-21 20:12:38] speed 2.5s/60s/15m 819.5 819.5 819.5 H/s max: 819.7 H/s
[2018-03-21 20:12:43] speed 2.5s/60s/15m 819.5 819.5 819.5 H/s max: 819.7 H/s
[2018-03-21 20:12:44] accepted (9/0) diff 120001 (133 ms)
[2018-03-21 20:12:47] new job from xmr-us-east1.nanopool.org:14444 diff 120001
[2018-03-21 20:12:48] speed 2.5s/60s/15m 819.5 819.5 819.5 H/s max: 819.7 H/s
[2018-03-21 20:12:53] speed 2.5s/60s/15m 819.5 819.5 819.5 H/s max: 819.7 H/s
[2018-03-21 20:12:58] speed 2.5s/60s/15m 819.5 819.5 819.5 H/s max: 819.7 H/s
[2018-03-21 20:13:03] speed 2.5s/60s/15m 819.4 819.5 819.5 H/s max: 819.7 H/s
[2018-03-21 20:13:08] speed 2.5s/60s/15m 819.6 819.5 819.5 H/s max: 819.7 H/s
[2018-03-21 20:13:13] speed 2.5s/60s/15m 819.3 819.5 819.5 H/s max: 819.7 H/s
[2018-03-21 20:13:18] speed 2.5s/60s/15m 819.4 819.5 819.5 H/s max: 819.7 H/s
[2018-03-21 20:13:23] speed 2.5s/60s/15m 819.4 819.5 819.5 H/s max: 819.7 H/s
[2018-03-21 20:13:28] speed 2.5s/60s/15m 819.4 819.5 819.5 H/s max: 819.7 H/s
[2018-03-21 20:13:33] speed 2.5s/60s/15m 819.6 819.5 819.5 H/s max: 819.7 H/s
[2018-03-21 20:13:38] speed 2.5s/60s/15m 819.4 819.5 819.5 H/s max: 819.7 H/s
[2018-03-21 20:13:43] speed 2.5s/60s/15m 819.5 819.5 819.5 H/s max: 819.7 H/s
[2018-03-21 20:13:47] new job from xmr-us-east1.nanopool.org:14444 diff 120001
[2018-03-21 20:13:48] speed 2.5s/60s/15m 819.4 819.5 819.5 H/s max: 819.7 H/s
[2018-03-21 20:13:53] speed 2.5s/60s/15m 819.4 819.5 819.5 H/s max: 819.7 H/s
[2018-03-21 20:13:58] speed 2.5s/60s/15m 819.4 819.5 819.5 H/s max: 819.7 H/s
[2018-03-21 20:14:03] speed 2.5s/60s/15m 819.6 819.5 819.5 H/s max: 819.7 H/s
[2018-03-21 20:14:08] speed 2.5s/60s/15m 819.5 819.5 819.5 H/s max: 819.7 H/s
[2018-03-21 20:14:13] speed 2.5s/60s/15m 819.5 819.5 819.5 H/s max: 819.7 H/s
[2018-03-21 20:14:18] speed 2.5s/60s/15m 819.6 819.5 819.5 H/s max: 819.7 H/s
[2018-03-21 20:14:23] speed 2.5s/60s/15m 819.5 819.5 819.5 H/s max: 819.7 H/s
[2018-03-21 20:14:28] speed 2.5s/60s/15m 819.5 819.5 819.5 H/s max: 819.7 H/s
[2018-03-21 20:14:33] speed 2.5s/60s/15m 819.5 819.5 819.5 H/s max: 819.7 H/s
[2018-03-21 20:14:38] speed 2.5s/60s/15m 819.6 819.5 819.5 H/s max: 819.7 H/s
[2018-03-21 20:14:43] speed 2.5s/60s/15m 819.6 819.5 819.5 H/s max: 819.7 H/s
[2018-03-21 20:14:47] new job from xmr-us-east1.nanopool.org:14444 diff 120001
[2018-03-21 20:14:48] speed 2.5s/60s/15m 819.6 819.5 819.5 H/s max: 819.7 H/s
[2018-03-21 20:14:53] speed 2.5s/60s/15m 819.6 819.5 819.5 H/s max: 819.7 H/s
[2018-03-21 20:14:58] speed 2.5s/60s/15m 819.7 819.5 819.5 H/s max: 819.7 H/s
[2018-03-21 20:15:03] speed 2.5s/60s/15m 819.5 819.5 819.5 H/s max: 819.7 H/s
[2018-03-21 20:15:08] speed 2.5s/60s/15m 819.5 819.5 819.5 H/s max: 819.7 H/s
[2018-03-21 20:15:10] new job from xmr-us-east1.nanopool.org:14444 diff 120001
[2018-03-21 20:15:13] speed 2.5s/60s/15m 819.6 819.6 819.5 H/s max: 819.7 H/s
[2018-03-21 20:15:18] speed 2.5s/60s/15m 819.6 819.6 819.5 H/s max: 819.7 H/s
[2018-03-21 20:15:23] speed 2.5s/60s/15m 819.7 819.6 819.5 H/s max: 819.7 H/s
[2018-03-21 20:15:28] speed 2.5s/60s/15m 819.5 819.6 819.5 H/s max: 819.7 H/s
