records	24040
invalid	0
blanks	0
blocks	1
outofrange	0
mean_y	246.618553
stddev_y	5.718042
ssd_y	5.718161
skewness_y	-40.825920
kurtosis_y	1745.716536
adev_y	0.901948
sum_y	5928710.012000
sum_sq_y	1462915895.652022
mean_err_y	0.036879
stddev_err_y	0.026077
skewness_err_y	0.015798
kurtosis_err_y	0.031596
min_y	0.000000
lo_quartile_y	246.475000
median_y	247.000000
up_quartile_y	247.400000
max_y	258.774000
min_index_y	0
max_index_y	16928
