records	11071
invalid	0
blanks	0
blocks	1
outofrange	0
mean_y	94.659039
stddev_y	0.153026
ssd_y	0.153033
skewness_y	-31.180964
kurtosis_y	1249.493170
adev_y	0.056736
sum_y	1047970.219800
sum_sq_y	99200113.065382
mean_err_y	0.001454
stddev_err_y	0.001028
skewness_err_y	0.023280
kurtosis_err_y	0.046560
min_y	87.800000
lo_quartile_y	94.600000
median_y	94.690500
up_quartile_y	94.700000
max_y	94.800000
min_index_y	1
max_index_y	11022
