ec2-18-219-154-92.us-east-2.compute.amazonaws.com
ec2-13-58-160-146.us-east-2.compute.amazonaws.com
ec2-18-220-135-154.us-east-2.compute.amazonaws.com
ec2-18-220-202-211.us-east-2.compute.amazonaws.com
ec2-18-216-240-59.us-east-2.compute.amazonaws.com
ec2-18-188-193-189.us-east-2.compute.amazonaws.com
ec2-13-58-209-127.us-east-2.compute.amazonaws.com
ec2-18-220-203-127.us-east-2.compute.amazonaws.com
ec2-18-221-128-194.us-east-2.compute.amazonaws.com
ec2-18-216-64-230.us-east-2.compute.amazonaws.com
ec2-18-217-250-191.us-east-2.compute.amazonaws.com
ec2-13-58-155-51.us-east-2.compute.amazonaws.com
ec2-18-188-104-206.us-east-2.compute.amazonaws.com
ec2-18-188-104-2.us-east-2.compute.amazonaws.com
ec2-18-219-185-79.us-east-2.compute.amazonaws.com
ec2-18-188-11-125.us-east-2.compute.amazonaws.com
ec2-18-188-190-129.us-east-2.compute.amazonaws.com
ec2-18-188-190-5.us-east-2.compute.amazonaws.com
ec2-18-222-104-238.us-east-2.compute.amazonaws.com
ec2-18-220-26-41.us-east-2.compute.amazonaws.com
ec2-13-58-80-234.us-east-2.compute.amazonaws.com
ec2-18-220-70-67.us-east-2.compute.amazonaws.com
ec2-18-221-156-60.us-east-2.compute.amazonaws.com
ec2-18-216-244-157.us-east-2.compute.amazonaws.com
ec2-18-218-49-43.us-east-2.compute.amazonaws.com 
