records	48639
invalid	0
blanks	0
blocks	1
outofrange	0
mean_y	203.198653
stddev_y	4.481895
ssd_y	4.481941
skewness_y	5.715969
kurtosis_y	80.601699
adev_y	2.717865
sum_y	9883379.300000
sum_sq_y	2009266394.309991
mean_err_y	0.020322
stddev_err_y	0.014370
skewness_err_y	0.011107
kurtosis_err_y	0.022213
min_y	161.200000
lo_quartile_y	200.800000
median_y	202.800000
up_quartile_y	204.900000
max_y	299.900000
min_index_y	4170
max_index_y	8997
