ec2-13-58-204-255.us-east-2.compute.amazonaws.com
ec2-13-59-45-109.us-east-2.compute.amazonaws.com
ec2-13-59-74-128.us-east-2.compute.amazonaws.com
ec2-18-188-22-31.us-east-2.compute.amazonaws.com
ec2-18-188-109-253.us-east-2.compute.amazonaws.com
ec2-18-216-25-235.us-east-2.compute.amazonaws.com
ec2-18-216-98-28.us-east-2.compute.amazonaws.com
ec2-18-218-30-120.us-east-2.compute.amazonaws.com
ec2-18-219-117-35.us-east-2.compute.amazonaws.com
ec2-18-219-170-158.us-east-2.compute.amazonaws.com 
