records	20557
invalid	0
blanks	0
blocks	1
outofrange	0
mean_y	46.359941
stddev_y	0.052222
ssd_y	0.052223
skewness_y	-0.824622
kurtosis_y	2.973062
adev_y	0.049189
sum_y	953021.300000
sum_sq_y	44182066.970010
mean_err_y	0.000364
stddev_err_y	0.000258
skewness_err_y	0.017084
kurtosis_err_y	0.034168
min_y	46.000000
lo_quartile_y	46.300000
median_y	46.400000
up_quartile_y	46.400000
max_y	46.400000
min_index_y	8732
max_index_y	20556
