records	20592
invalid	0
blanks	0
blocks	1
outofrange	0
mean_y	274.385591
stddev_y	3.780156
ssd_y	3.780248
skewness_y	-5.776876
kurtosis_y	52.988480
adev_y	1.979734
sum_y	5650148.100000
sum_sq_y	1550613479.409997
mean_err_y	0.026343
stddev_err_y	0.018627
skewness_err_y	0.017070
kurtosis_err_y	0.034139
min_y	223.000000
lo_quartile_y	273.700000
median_y	275.100000
up_quartile_y	276.100000
max_y	281.400000
min_index_y	305
max_index_y	13422
